<svg id="Слой_1" data-name="Слой 1" xmlns="http://www.w3.org/2000/svg" viewBox="0 0 99.21 99.21">
    <defs>
        <style>
            .cls-1{fill:#783d31}
        </style>
    </defs>
    <path class="cls-1" d="M85.61 69.28l-4.72-8.69A9 9 0 0 0 79.78 59a12 12 0 0 0-3.61-2.9L63.3 48.64l-1.12-.51 17.17-23 1-.47A23.19 23.19 0 0 0 57.7 6.11h-.15A23.19 23.19 0 0 0 35 24.61l.94.46L52.4 47.19c-.6.14-1.22.31-1.88.52l-11.3 3.65-4.52 1.46-1.83.59-.36.12-2.77 13-4.43 1.43c-5.22 1.68-8.18 4.3-9.8 6.86a12.05 12.05 0 0 0-1.88 6.39 7.62 7.62 0 0 0 .07 1.09l1.18 9.83 8.47-2.73 1.8-.58a8.94 8.94 0 0 0 16.59-4.7v-.65L61.55 77a8.94 8.94 0 0 0 16.59-4.7v-.65zm-24.7-21.7l-.75-.3 9.21-21.44v-.08A6.07 6.07 0 0 1 74.49 23a6 6 0 0 1 3.75 1.3zm-2-.67l-.6-.11V25.62a6.07 6.07 0 0 1 5-2.59 6.05 6.05 0 0 1 4.84 2.42zm19.58-24a7.34 7.34 0 0 0-4-1.16 7.37 7.37 0 0 0-5.17 2.11 32.83 32.83 0 0 0-3.87-12 14.5 14.5 0 0 0-3.15-3.81 21.91 21.91 0 0 1 16.16 14.81zM54.08 8.73a5.87 5.87 0 0 1 3.52-1.29h.06a5.87 5.87 0 0 1 3.51 1.29 15.46 15.46 0 0 1 4.49 6.36 34.84 34.84 0 0 1 2.26 8.28 7.36 7.36 0 0 0-4.67-1.66 7.38 7.38 0 0 0-5.62 2.6A7.38 7.38 0 0 0 52 21.7a7.36 7.36 0 0 0-4.68 1.67 31 31 0 0 1 3.6-10.93 12.72 12.72 0 0 1 3.16-3.71zM57 25.61v21.07h-.7l-9.14-21.22A6 6 0 0 1 52 23a6.06 6.06 0 0 1 5 2.61zM53 7.94a17.25 17.25 0 0 0-4.57 6.62 36.64 36.64 0 0 0-2.46 9.24 7.37 7.37 0 0 0-5.16-2.11 7.34 7.34 0 0 0-4 1.16A21.91 21.91 0 0 1 53 7.94zM37 24.33A6 6 0 0 1 40.76 23a6.07 6.07 0 0 1 5.07 2.73l9 21c-.33 0-.67.08-1 .14zm-3.37 30.23L38 53.14l-2.42 11.47L31.17 66zM35.1 91.4a7.6 7.6 0 0 1-9.59-5 7.69 7.69 0 0 1 4.94-9.66 7.59 7.59 0 0 1 9.59 5 7.69 7.69 0 0 1-4.93 9.66zm36.41-11.75a7.6 7.6 0 0 1-9.59-5A7.69 7.69 0 0 1 66.86 65a7.59 7.59 0 0 1 9.59 5 7.69 7.69 0 0 1-4.93 9.66zm6.19-10.07a8.94 8.94 0 0 0-17.47 2.75 9.06 9.06 0 0 0 .43 2.75c.08.26.18.51.28.75l-19.45 6.29c-.06-.26-.13-.52-.21-.77A8.94 8.94 0 0 0 23.8 84.1a9.06 9.06 0 0 0 .43 2.75c.08.26.18.51.28.75l-1.6.52L16 90.35l-1-8.25a6.21 6.21 0 0 1-.05-.9 10.72 10.72 0 0 1 1.68-5.67c1.45-2.28 4.1-4.7 9.08-6.31l4.8-1.55L60.55 58l-.4-1.27L37 64.14l2.45-11.47L50.93 49a18.3 18.3 0 0 1 5.58-1 9.3 9.3 0 0 1 2.7.36c.51.15 1.4.53 2.15.86l1 .43.29.13h.08l12.84 7.41a10.68 10.68 0 0 1 3.24 2.59 9 9 0 0 1 .73 1l.17.28v.07l4 7.3-5.77 1.86c-.08-.19-.15-.45-.23-.7zm-5.15 1.66a3.52 3.52 0 0 0-4.45-2.3 3.56 3.56 0 0 0-2.46 3.39 3.6 3.6 0 0 0 .17 1.09 3.53 3.53 0 0 0 4.45 2.31 3.57 3.57 0 0 0 2.29-4.48zm-2.69 3.22a2.23 2.23 0 0 1-1.35-4.25 2.19 2.19 0 0 1 .68-.11 2.22 2.22 0 0 1 2.11 1.55 2.26 2.26 0 0 1 .11.68 2.23 2.23 0 0 1-1.55 2.14zM36.13 83a3.54 3.54 0 0 0-3.37-2.48 3.5 3.5 0 0 0-1.08.17 3.56 3.56 0 1 0 2.16 6.79A3.57 3.57 0 0 0 36.13 83zm-1.26.41a2.24 2.24 0 0 1-1.43 2.81 2.21 2.21 0 0 1-2.79-1.45A2.24 2.24 0 0 1 32.09 82a2.19 2.19 0 0 1 .68-.11 2.22 2.22 0 0 1 2.11 1.55l.63-.2zm-.82 4l-.21.07z"/>
</svg>
