<svg xmlns="http://www.w3.org/2000/svg" viewBox="0 0 85.04 85.04" fill="#783d31">
    <path d="M41.82 50.24h-28a.79.79 0 1 0 .18 1.59h27.82a.79.79 0 1 0 0-1.58zM65.57 52a14.73 14.73 0 0 0-1.61.09V16.38a.78.78 0 0 0-.23-.57L52.5 4.75a.81.81 0 0 0-.58-.22H5.67a.79.79 0 0 0-.67.78v58.77a.8.8 0 0 0 1.61 0v-58h44.5v10.3a.8.8 0 0 0 .8.79h10.45V52.1a.77.77 0 0 0 .05.29 14.31 14.31 0 0 0-11.3 13.89A14 14 0 0 0 52 71H9.67a.79.79 0 1 0 .15 1.58h42.82A14.39 14.39 0 1 0 65.57 52zM52.73 15.59V7.22l8.5 8.38zm12.84 63.33A12.64 12.64 0 1 1 78.4 66.28a12.72 12.72 0 0 1-12.83 12.64zM12.88 40.07a.8.8 0 0 0 .88.72H55a.79.79 0 1 0 0-1.58H13.6a.8.8 0 0 0-.72.86zm42.4-10.39a.79.79 0 1 0 0-1.58H13.85a.79.79 0 1 0 .15 1.58zm15.88 31.84a.81.81 0 0 0-.55.25l-7.45 7.34-2.63-2.59a.82.82 0 0 0-1.14 0 .79.79 0 0 0 0 1.12l3.21 3.16a.81.81 0 0 0 1.14 0l8-7.91a.78.78 0 0 0 0-1.12.81.81 0 0 0-.58-.25z"/>
</svg>
