<svg id="Слой_1" data-name="Слой 1" xmlns="http://www.w3.org/2000/svg" viewBox="0 0 90.71 85.04">
    <defs>
        <style>
            .cls-1{fill:#804033}
        </style>
    </defs>
    <path class="cls-1" d="M45.35 2.52a40 40 0 0 0-34.68 59.91.55.55 0 0 0 .13.21A40 40 0 1 0 45.35 2.52zM82.51 31H73a6 6 0 1 0 0 12 4.92 4.92 0 1 1 0 9.84H62.71a5.75 5.75 0 0 0-6 6 5 5 0 0 1-4.93 4.92h-5.69a4.78 4.78 0 0 1-.61-.08 4.91 4.91 0 0 1 0-9.65 4.41 4.41 0 0 1 .62-.03h.33a6 6 0 1 0 0-12.05H33.71a4.92 4.92 0 1 1 0-9.83h9.66a6 6 0 1 0 0-12.05 4.92 4.92 0 1 1 0-9.84H67A39.06 39.06 0 0 1 82.51 31zM24.3 9.83h.16c2.71-.17 4.64.27 5.74 1.31a4.42 4.42 0 0 1 1.22 3.41 4.93 4.93 0 0 1-4.93 4.92H14a39.21 39.21 0 0 1 10.3-9.64zM8.54 30h8.09a4.92 4.92 0 1 1 0 9.84 6 6 0 1 0 0 12h5.55a4.92 4.92 0 1 1 0 9.84H11.54a38.87 38.87 0 0 1-3-31.68zm29.54 50.73v-1.64A4.93 4.93 0 0 1 43 74.17h24.94a38.85 38.85 0 0 1-29.86 6.56zm31.33-7.67H43a6 6 0 0 0-6 6v1.44a39 39 0 0 1-24.81-17.69h10a6 6 0 1 0 0-12.05h-5.57a4.92 4.92 0 1 1 0-9.83 6 6 0 1 0 0-12.05H8.93a38.82 38.82 0 0 1 4.32-8.29h13.26a6 6 0 0 0 6-6A5.53 5.53 0 0 0 31 10.35a7.19 7.19 0 0 0-4.83-1.63 38.82 38.82 0 0 1 39.13.42H43.37a6 6 0 1 0 0 12.05 4.92 4.92 0 0 1 4.93 4.91 4.93 4.93 0 0 1-4.93 4.9h-9.66a6 6 0 1 0 0 12h12.72a4.92 4.92 0 1 1 0 9.84H46a5.43 5.43 0 0 0-.76.1 6 6 0 0 0 0 11.82 6 6 0 0 0 .75.1h5.74a6.08 6.08 0 0 0 6-6A4.7 4.7 0 0 1 62.71 54H73a6 6 0 1 0 0-12 4.92 4.92 0 1 1 0-9.83h9.79a38.87 38.87 0 0 1-13.38 40.89z"/>
</svg>
