<svg id="Слой_1" data-name="Слой 1" xmlns="http://www.w3.org/2000/svg" viewBox="0 0 99.21 99.21">
    <defs>
        <style>
            .cls-1{fill:#783d31}
        </style>
    </defs>
    <path class="cls-1" d="M69.11 32.66h-2.2v-6.07c0-8.08-19.49-8.48-23.4-8.48s-23.4.41-23.4 8.48v44.32c0 9.91 21 10.2 23.4 10.2s23.4-.29 23.4-10.2V68h2.2a10 10 0 0 0 10-10V42.65a10 10 0 0 0-10-9.99zm-2.2 8h2.2a2 2 0 0 1 2 2v15.4a2 2 0 0 1-2 2h-2.2zm-23.4-21.43c8.27 0 22.27 1.55 22.27 7.36 0 6.82-16.08 8.32-22.27 8.32-1.53 0-3.66-.09-6-.33v-.17l2.42-2.84c1.18.05 2.39.08 3.59.08 9.67 0 19.46-1.73 19.46-5s-9.79-5-19.46-5S24 23.32 24 26.62c0 2.73 6.69 4.38 14.46 4.87l-2 2.35a.56.56 0 0 0-.13.36v.25c-6.94-.83-15.14-3-15.14-7.86.04-5.81 14.04-7.36 22.32-7.36zm-2.36 10a.57.57 0 0 0-.79.06l-.93 1.1C30.5 30 25.17 28 25.17 26.62c0-1.63 7-3.9 18.34-3.9s18.33 2.28 18.33 3.9-7 3.9-18.34 3.9h-2.66l.36-.43a.56.56 0 0 0-.06-.83zm24.63 41.68c0 9-21.37 9.07-22.27 9.07s-22.27-.1-22.27-9.07v-41c2.69 3.58 9.69 5.07 15.14 5.7v9.25a1.91 1.91 0 0 0-.76.42l-6.26 5.81a4 4 0 0 0-1.12 2.57v13.51A1.85 1.85 0 0 0 30.08 69H43.8a1.85 1.85 0 0 0 1.85-1.85v-13.5a4 4 0 0 0-1.12-2.57l-6.26-5.81a1.9 1.9 0 0 0-.76-.42v-9.14c3.23.31 5.7.32 6 .32.83 0 17.72-.08 22.27-6.14zm-29.4-24.83a.85.85 0 0 1 1.12 0l6.26 5.81a2.82 2.82 0 0 1 .76 1.75v13.53a.72.72 0 0 1-.72.72H30.08a.72.72 0 0 1-.72-.72V53.65a2.82 2.82 0 0 1 .76-1.75zm41.6 12a8.88 8.88 0 0 1-8.87 8.86h-2.2V61.2h2.2a3.14 3.14 0 0 0 3.14-3.13V42.65a3.14 3.14 0 0 0-3.14-3.13h-2.2v-5.73h2.2A8.87 8.87 0 0 1 78 42.65z"/>
</svg>
