<svg id="Слой_1" data-name="Слой 1" xmlns="http://www.w3.org/2000/svg" viewBox="0 0 99.21 99.21">
    <defs>
        <style>
            .cls-1{fill:#783d31}
        </style>
    </defs>
    <path class="cls-1" d="M52.57 37.4H50.5a.56.56 0 0 0-.5.34l-1.23 2.88a.58.58 0 0 0 .06.56.56.56 0 0 0 .51.23c.94-.09 1.89-.13 2.84-.13 6.74 0 13.12 2.21 17.49 6.05a.56.56 0 0 0 .57.1.57.57 0 0 0 .36-.47l.4-3.46a.57.57 0 0 0-.21-.51C64.61 38 57.81 37.4 52.57 37.4zm17 8.44a28.22 28.22 0 0 0-17.42-5.65c-.66 0-1.33 0-2 .06l.72-1.68h1.68c7.38 0 12.72 1.61 17.27 5.2zM54.13 34.23A33.08 33.08 0 0 0 42 36.52c-1.34-.46-9.27-2.95-14.74.59a.57.57 0 0 0-.25.58l1.57 9.15a26.45 26.45 0 0 0-3.13 5.72h-6.39c-2.5 0-4.46 3.92-4.46 8.92s2 8.92 4.46 8.92h5.69a.56.56 0 0 0 .39-.16 26.64 26.64 0 0 0 4.56 8 .57.57 0 0 0 0 .21l2.8 13.3c0 .1 0 .19.06.28a4.11 4.11 0 0 0 2.11 2.68 4 4 0 0 0 1.84.44 4.14 4.14 0 0 0 1.57-.31l13-5.56.13-.08c.95.08 1.91.13 2.88.13s2.11 0 3.14-.15a.55.55 0 0 0 .15.1l12.65 5.46.24.11A4.07 4.07 0 0 0 75.81 92c0-.09 0-.19.06-.26l3-14a25.63 25.63 0 0 0 5.71-16c.03-15.16-13.64-27.51-30.45-27.51zm-26 3.65c4-2.37 9.59-1.34 12.18-.65a30.06 30.06 0 0 0-10.83 8.37zm-3.4 31.38h-5.67c-1.58 0-3.33-3.2-3.33-7.78s1.75-7.78 3.33-7.78H25a24.92 24.92 0 0 0-.18 15.57zm13.07 24.4l-.2.09a2.93 2.93 0 0 1-2.45-.1 3 3 0 0 1-1.53-1.94v-.21l-2.46-11.69A31.4 31.4 0 0 0 49 88.89zm36.92-2.15v.2a3 3 0 0 1-1.52 1.94 2.92 2.92 0 0 1-2.43.11l-11.34-4.9a31.34 31.34 0 0 0 17.93-9.31zm-20.59-3.37c-16.13 0-29.34-11.83-29.34-26.38S38 35.37 54.13 35.37 83.48 47.2 83.48 61.76 70.32 88.14 54.13 88.14zm-6.4-45.3h-.07a3.71 3.71 0 0 0-2.23-.61c-2.09 0-5.15 1-9.1 3.06a.57.57 0 0 0 .06 1c5.51 2 7 8.65 5.59 14.15-.08.31-.14.62-.21.93s-.18.87-.31 1.27a.59.59 0 0 0 0 .07.59.59 0 0 0 0 .06v.28h.08a15.9 15.9 0 0 0 4.56.66 12.48 12.48 0 0 0 7.65-2.31 6 6 0 0 0 2.37-5.15c-.12-7.75-7.01-12.53-8.39-13.4zm-9.81 2.89c3.22-1.57 5.8-2.4 7.5-2.4s2 .83 2.11 1.1c.72 1.89-.74 6.91-4 14 .54-4.99-1.09-10.36-5.6-12.7zm15.45 15.11c-2.4 1.92-6.74 2.57-10.54 1.63 4.26-8.55 6.27-14.39 6-17.41C51.14 47 55 51 55.32 56.65a4.8 4.8 0 0 1-1.95 4.19zm-20.14-8.61a3.57 3.57 0 1 0 3.53 3.57 3.56 3.56 0 0 0-3.53-3.57zm0 6a2.43 2.43 0 1 1 2.41-2.43 2.42 2.42 0 0 1-2.41 2.44zm27-26.75A13.69 13.69 0 1 0 46.66 17.8a13.64 13.64 0 0 0 13.55 13.69zm0-26.24A12.55 12.55 0 1 1 47.79 17.8 12.5 12.5 0 0 1 60.21 5.25zm0 21.79a9.24 9.24 0 1 0-9.14-9.24A9.2 9.2 0 0 0 60.21 27zm0-17.34a8.1 8.1 0 1 1-8 8.1 8.07 8.07 0 0 1 7.98-8.09z"/>
</svg>
