<svg id="Слой_1" data-name="Слой 1" xmlns="http://www.w3.org/2000/svg" viewBox="0 0 28.35 36.85">
    <defs>
        <style>
            .cls-1{fill-rule:evenodd}
        </style>
    </defs>
    <path class="cls-1" d="M12.14 21.1h2a15.9 15.9 0 0 0 5.36-.86 9.43 9.43 0 0 0 4-2.57 8.32 8.32 0 0 0 2.24-6.17A8.23 8.23 0 0 0 25 8.12a7.57 7.57 0 0 0-1.82-2.53 9.17 9.17 0 0 0-3.4-2 15.57 15.57 0 0 0-5-.71q-2 0-3.73.17a29 29 0 0 0-3.12.47v21.63H2.67v2.31h5.27v6.46h2.41v-6.46h9.56v-2.31h-9.55v-4.3a8.61 8.61 0 0 0 1.78.25zM10.36 5.2a16.87 16.87 0 0 1 1.73-.2q1.12-.11 2.61-.11a13.9 13.9 0 0 1 3.47.41 7.44 7.44 0 0 1 2.7 1.26 5.79 5.79 0 0 1 1.73 2.13 7.37 7.37 0 0 1 .61 3.15 6.71 6.71 0 0 1-2.33 5.51 10 10 0 0 1-6.54 1.91q-1.14 0-2.17-.09a6.68 6.68 0 0 1-1.82-.39z"/>
</svg>
