<svg viewBox="0 0 167 167" fill="none" xmlns="http://www.w3.org/2000/svg">
  <path d="M83.5 167C129.616 167 167 129.616 167 83.5C167 37.3842 129.616 0 83.5 0C37.3842 0 0 37.3842 0 83.5C0 129.616 37.3842 167 83.5 167Z" fill="#A36B4F"/>
  <path d="M62.7779 99.173C71.8707 99.173 77.6734 93.7293 77.6734 86.7302C77.6734 81.8847 74.6823 77.6375 69.7172 76.1419C73.1868 74.5866 75.5198 71.2366 75.5198 67.7072C75.5198 61.6055 71.1529 57.0591 62.7779 57.0591C56.317 57.0591 52.6081 60.6483 50.993 64.5367L55.5394 66.7501C56.5563 64.1179 59.2483 62.2037 62.7779 62.2037C67.2047 62.2037 69.9565 64.4769 69.9565 67.9465C69.9565 71.6554 66.7261 74.0482 62.6583 74.0482H57.5135V78.9535H62.7779C68.5208 78.9535 72.11 81.8847 72.11 86.4311C72.11 91.0373 68.2815 94.0284 62.7779 94.0284C57.6929 94.0284 54.7617 91.4561 53.326 88.0463L48.7198 90.3195C50.6939 95.3444 55.4197 99.173 62.7779 99.173ZM99.5017 99.173C110.15 99.173 116.012 90.6186 116.012 78.116C116.012 65.6135 110.15 57.0591 99.5017 57.0591C88.8536 57.0591 82.9912 65.6135 82.9912 78.116C82.9912 90.6186 88.8536 99.173 99.5017 99.173ZM99.5017 94.0284C91.8447 94.0284 88.5545 87.4481 88.5545 78.116C88.5545 68.784 91.8447 62.2037 99.5017 62.2037C107.159 62.2037 110.449 68.784 110.449 78.116C110.449 87.4481 107.159 94.0284 99.5017 94.0284Z" fill="white"/>
  <path d="M50.5221 117.772H51.9121V114.392H56.4295V117.772H57.8195V110.045H56.4295V113.332H51.9121V110.045H50.5221V117.772ZM65.9158 116.838C64.3173 116.838 63.2922 115.747 63.2922 113.909C63.2922 112.071 64.3173 110.98 65.9158 110.98C67.5143 110.98 68.5394 112.071 68.5394 113.909C68.5394 115.747 67.5143 116.838 65.9158 116.838ZM65.9158 109.874C63.4486 109.874 61.8501 111.525 61.8501 113.909C61.8501 116.292 63.4486 117.944 65.9158 117.944C68.383 117.944 69.9815 116.292 69.9815 113.909C69.9815 111.525 68.383 109.874 65.9158 109.874ZM72.7865 117.772H74.4545L77.3387 114.579H78.9546V117.772H80.3446V110.045H76.7132C74.9062 110.045 73.7074 110.918 73.7074 112.289C73.7074 113.457 74.4719 114.252 75.7576 114.485L72.7865 117.725V117.772ZM76.8175 113.519C75.7576 113.519 75.1495 113.145 75.1495 112.304C75.1495 111.479 75.7576 111.105 76.8175 111.105H78.9546V113.519H76.8175ZM88.6886 117.944C91.208 117.944 92.6501 116.246 92.6501 114.096C92.6501 111.868 91.2254 110.31 88.9319 110.31C87.6288 110.31 86.6558 110.902 86.065 111.852C86.0998 109.905 86.6905 108.846 88.2369 108.316C89.2968 107.927 90.93 108.005 91.7987 107.74V106.571C90.9474 106.867 88.9145 106.914 87.8199 107.226C85.3527 107.942 84.6577 109.796 84.6577 113.27C84.6577 116.23 86.065 117.944 88.6886 117.944ZM88.6886 116.838C87.1944 116.838 86.1693 115.872 86.1693 114.127C86.1693 112.382 87.1944 111.416 88.6886 111.416C90.1829 111.416 91.208 112.382 91.208 114.127C91.208 115.872 90.1829 116.838 88.6886 116.838ZM96.7012 120.701H98.0912V116.744C98.7167 117.476 99.7071 117.944 100.784 117.944C103.078 117.944 104.537 116.292 104.537 113.909C104.537 111.525 103.078 109.874 100.784 109.874C99.6723 109.874 98.6646 110.373 98.0391 111.151V110.045H96.7012V120.701ZM100.489 116.838C99.4117 116.838 98.4908 116.277 98.0912 115.451V112.382C98.4908 111.556 99.4117 110.98 100.489 110.98C102.122 110.98 103.095 112.086 103.095 113.909C103.095 115.731 102.122 116.838 100.489 116.838ZM107.353 117.772H109.021L111.906 114.579H113.521V117.772H114.911V110.045H111.28C109.473 110.045 108.274 110.918 108.274 112.289C108.274 113.457 109.039 114.252 110.324 114.485L107.353 117.725V117.772ZM111.384 113.519C110.324 113.519 109.716 113.145 109.716 112.304C109.716 111.479 110.324 111.105 111.384 111.105H113.521V113.519H111.384Z" fill="white"/>
  <path d="M39.9076 61.247C39.9076 63.0584 40.9258 64.3134 42.6188 64.3134C43.7318 64.3134 44.6316 63.7096 44.9631 62.7624L44.2172 62.3836C43.9449 63.0939 43.3766 63.4728 42.6188 63.4728C41.5651 63.4728 40.8903 62.644 40.8903 61.247C40.8903 59.8499 41.5651 59.0211 42.6188 59.0211C43.3766 59.0211 43.9449 59.4 44.2172 60.1104L44.9631 59.7315C44.6316 58.7843 43.7318 58.1805 42.6188 58.1805C40.9258 58.1805 39.9076 59.4355 39.9076 61.247Z" fill="white"/>
</svg>
