<svg viewBox="0 0 117 29" fill="none" xmlns="http://www.w3.org/2000/svg">
  <path fill-rule="evenodd" clip-rule="evenodd" d="M38.7405 17.2059V19.0059H43.0605C42.9927 19.8537 42.6403 20.6537 42.0605 21.2759C41.1865 22.1661 39.977 22.6456 38.7305 22.5959C36.0795 22.5959 33.9305 20.4469 33.9305 17.7959C33.9305 15.1449 36.0795 12.9959 38.7305 12.9959C39.9483 12.976 41.1242 13.44 42.0005 14.2859L43.2705 13.0159C42.0754 11.8058 40.4412 11.1311 38.7405 11.1459C36.3194 11.0517 34.0409 12.2896 32.8023 14.372C31.5638 16.4544 31.5638 19.0475 32.8023 21.1298C34.0409 23.2122 36.3194 24.4501 38.7405 24.3559C40.4722 24.4342 42.1532 23.7596 43.3505 22.5059C44.3981 21.3548 44.9575 19.8417 44.9105 18.2859C44.9137 17.9069 44.8802 17.5285 44.8105 17.1559L38.7405 17.2059ZM54.9105 20.159C54.9032 17.8144 56.7959 15.9068 59.1405 15.8957C60.2761 15.8739 61.3718 16.314 62.1768 17.1152C62.9818 17.9165 63.427 19.0101 63.4105 20.1457C63.4105 22.4903 61.5118 24.392 59.1672 24.3957C56.8226 24.3994 54.9179 22.5036 54.9105 20.159ZM56.6323 21.2643C57.089 22.2202 58.0835 22.7998 59.1403 22.7258C59.8036 22.7105 60.4325 22.4278 60.8844 21.942C61.3363 21.4563 61.5728 20.8085 61.5403 20.1459C61.5377 19.0865 60.8878 18.1364 59.9015 17.7499C58.9151 17.3635 57.7928 17.6192 57.0713 18.3949C56.3497 19.1705 56.1757 20.3084 56.6323 21.2643ZM49.8305 15.896C47.4846 15.9016 45.5868 17.8068 45.5905 20.1527C45.5941 22.4986 47.4979 24.3979 49.8438 24.396C52.1897 24.3942 54.0904 22.492 54.0905 20.146C54.1069 19.0104 53.6617 17.9168 52.8567 17.1156C52.0517 16.3143 50.956 15.8743 49.8205 15.896H49.8305ZM47.3158 21.2722C47.7757 22.2275 48.7731 22.8042 49.8305 22.7261H49.8205C50.4838 22.7107 51.1127 22.4281 51.5646 21.9423C52.0165 21.4565 52.253 20.8088 52.2205 20.1461C52.2176 19.0859 51.5664 18.1354 50.5788 17.7498C49.5912 17.3642 48.4683 17.622 47.7478 18.3998C47.0273 19.1776 46.8559 20.3169 47.3158 21.2722ZM80.4105 15.8959C82.0685 15.957 83.5166 17.0352 84.0505 18.606L84.2605 19.056L78.5705 21.406C78.9272 22.2182 79.7441 22.7297 80.6305 22.696C81.4864 22.6981 82.2803 22.2499 82.7205 21.5159L84.1705 22.5159C83.3812 23.6974 82.0514 24.4036 80.6305 24.3959C79.5011 24.4125 78.4135 23.9691 77.6176 23.1675C76.8217 22.366 76.386 21.2753 76.4105 20.1459C76.3414 19.0425 76.7322 17.9596 77.4899 17.1545C78.2477 16.3494 79.3049 15.8938 80.4105 15.8959ZM78.2505 20.0258C78.2095 19.401 78.4218 18.786 78.8394 18.3194C79.2571 17.8529 79.8449 17.574 80.4705 17.5459C81.1298 17.5024 81.7515 17.8565 82.0505 18.4458L78.2505 20.0258ZM75.5002 24.1459H73.6302V11.6459H75.5002V24.1459ZM70.5704 16.846H70.5005C69.9304 16.2086 69.1155 15.8448 68.2604 15.846C65.9906 15.956 64.2068 17.8284 64.2068 20.101C64.2068 22.3735 65.9906 24.2459 68.2604 24.356C69.1183 24.3704 69.9385 24.0042 70.5005 23.356H70.5605V23.966C70.5605 25.596 69.6904 26.466 68.2905 26.466C67.3368 26.4436 66.4912 25.847 66.1505 24.956L64.5205 25.636C65.1481 27.1628 66.6397 28.1558 68.2905 28.1459C70.4804 28.1459 72.2905 26.856 72.2905 23.716V16.1459H70.5704V16.846ZM66.0677 20.1459C66.0677 21.4871 67.0917 22.6063 68.4273 22.7256L68.4204 22.7259H68.4304L68.4273 22.7256C69.0746 22.6988 69.6832 22.4093 70.1123 21.9237C70.543 21.4363 70.7555 20.7939 70.7004 20.1459C70.7497 19.5008 70.5366 18.8631 70.1092 18.3774C69.6819 17.8916 69.0765 17.599 68.4304 17.5659C67.0933 17.6837 66.0677 18.8036 66.0677 20.1459ZM92.8105 11.646H88.3405V24.146H90.2105V19.406H92.8205C94.2731 19.5104 95.6624 18.7945 96.4206 17.551C97.1787 16.3075 97.1787 14.7446 96.4206 13.5011C95.6624 12.2575 94.2731 11.5417 92.8205 11.646H92.8105ZM90.2006 17.646H92.8106L92.8506 17.676C94.0352 17.676 94.9956 16.7157 94.9956 15.531C94.9956 14.3464 94.0352 13.386 92.8506 13.386H90.2006V17.646ZM104.34 15.8459C102.949 15.7627 101.641 16.513 101.01 17.7559L102.67 18.4459C103.005 17.8295 103.672 17.4687 104.37 17.5259C104.85 17.4699 105.332 17.6088 105.708 17.9116C106.084 18.2143 106.323 18.6554 106.37 19.1359V19.2659C105.77 18.9479 105.1 18.783 104.42 18.7859C102.63 18.7859 100.82 19.7859 100.82 21.5959C100.856 22.3756 101.206 23.1077 101.79 23.6257C102.373 24.1437 103.142 24.4034 103.92 24.3459C104.88 24.4148 105.8 23.9546 106.32 23.1459H106.38V24.1459H108.18V19.3359C108.18 17.1459 106.52 15.8759 104.39 15.8759L104.34 15.8459ZM102.65 21.636C102.65 22.386 103.5 22.696 104.11 22.696L104.16 22.726C105.287 22.6985 106.221 21.8454 106.35 20.726C105.832 20.4364 105.244 20.2913 104.65 20.306C103.71 20.306 102.65 20.636 102.65 21.636ZM114.74 16.1459L112.6 21.566H112.54L110.32 16.1459H108.32L111.65 23.7259L109.75 27.936H111.7L116.82 16.1459H114.74ZM99.8004 24.1459H97.9304V11.6459H99.8004V24.1459Z" fill="white"/>
  <path fill-rule="evenodd" clip-rule="evenodd" d="M60.2102 6.36584C61.4272 7.57608 63.3932 7.57608 64.6102 6.36584C65.795 5.11908 65.795 3.1626 64.6102 1.91583C64.0282 1.32959 63.2363 0.999878 62.4102 0.999878C61.5842 0.999878 60.7922 1.32959 60.2102 1.91583C59.0305 3.16461 59.0305 5.11707 60.2102 6.36584ZM37.6704 6.38574C38.1837 5.84988 38.4548 5.12698 38.4204 4.38574C38.4205 4.23486 38.4071 4.08426 38.3804 3.93576H35.4704V4.65576H37.6404C37.6256 5.10925 37.4481 5.5423 37.1404 5.87576C36.455 6.5383 35.4383 6.72342 34.5633 6.345C33.6884 5.96658 33.127 5.09894 33.1404 4.14575C33.1186 3.51495 33.3548 2.90253 33.7944 2.44968C34.2341 1.99683 34.8393 1.74265 35.4704 1.74576C36.0983 1.71143 36.7058 1.97443 37.1104 2.45575L37.6404 1.92575C37.3844 1.63132 37.0623 1.4017 36.7004 1.25574C36.3117 1.08942 35.8932 1.00433 35.4704 1.00574C34.641 0.987274 33.8409 1.31308 33.2604 1.90576C32.3669 2.80508 32.0996 4.15237 32.5821 5.32468C33.0646 6.49698 34.2027 7.26584 35.4704 7.27576C36.2969 7.30518 37.0969 6.98157 37.6704 6.38574ZM40.3002 1.88586H43.0002V1.14587H39.5002V7.14587H43.0002V6.40588H40.3002V4.50586H42.7602V3.78589H40.3002V1.88586ZM46.2803 7.14587H45.5103V1.88586H43.8303V1.14587H48.0003V1.88586H46.2803V7.14587ZM50.9404 1.146V7.146H51.7104V1.146H50.9404ZM55.1304 7.146H54.3604V1.88599H52.6804V1.146H56.8004V1.88599H55.1304V7.146ZM60.7804 5.86572C61.6817 6.76331 63.139 6.76331 64.0404 5.86572C64.9256 4.88992 64.9256 3.40158 64.0404 2.42575C63.139 1.52817 61.6817 1.52817 60.7804 2.42575C59.8952 3.40158 59.8952 4.88992 60.7804 5.86572ZM66.5803 1.14587V7.14587H67.3603V2.25586L70.4103 7.14587H71.2103V1.14587H70.4403V5.81589L67.5203 1.14587H66.5803Z" fill="white"/>
  <path d="M64.6102 6.36584L64.6808 6.43678L64.6827 6.43473L64.6102 6.36584ZM60.2102 6.36584L60.1375 6.43455L60.1397 6.43675L60.2102 6.36584ZM64.6102 1.91583L64.6827 1.84693L64.6812 1.84538L64.6102 1.91583ZM60.2102 1.91583L60.1392 1.84536L60.1375 1.84716L60.2102 1.91583ZM38.4204 4.38574L38.3203 4.3857L38.3205 4.39037L38.4204 4.38574ZM37.6704 6.38574L37.7425 6.45509L37.7426 6.45491L37.6704 6.38574ZM38.3804 3.93576L38.4788 3.91808L38.464 3.83576H38.3804V3.93576ZM35.4704 3.93576V3.83576H35.3704V3.93576H35.4704ZM35.4704 4.65576H35.3704V4.75576H35.4704V4.65576ZM37.6404 4.65576L37.7404 4.65903L37.7437 4.55576H37.6404V4.65576ZM37.1404 5.87576L37.21 5.94778L37.2139 5.94358L37.1404 5.87576ZM34.5633 6.345L34.5236 6.43678L34.5633 6.345ZM33.1404 4.14575L33.2405 4.14716L33.2403 4.1423L33.1404 4.14575ZM35.4704 1.74576L35.4699 1.84593L35.4759 1.84561L35.4704 1.74576ZM37.1104 2.45575L37.0339 2.5201L37.104 2.60355L37.1811 2.52646L37.1104 2.45575ZM37.6404 1.92575L37.7111 1.99646L37.7771 1.93051L37.7159 1.86013L37.6404 1.92575ZM36.7004 1.25574L36.6611 1.34769L36.663 1.34848L36.7004 1.25574ZM35.4704 1.00574L35.4682 1.10575L35.4707 1.10574L35.4704 1.00574ZM33.2604 1.90576L33.3314 1.97624L33.3318 1.97574L33.2604 1.90576ZM32.5821 5.32468L32.4896 5.36273L32.5821 5.32468ZM35.4704 7.27576L35.474 7.17578L35.4712 7.17576L35.4704 7.27576ZM43.0002 1.88586V1.98586H43.1002V1.88586H43.0002ZM40.3002 1.88586V1.78586H40.2002V1.88586H40.3002ZM43.0002 1.14587H43.1002V1.04587H43.0002V1.14587ZM39.5002 1.14587V1.04587H39.4002V1.14587H39.5002ZM39.5002 7.14587H39.4002V7.24587H39.5002V7.14587ZM43.0002 7.14587V7.24587H43.1002V7.14587H43.0002ZM43.0002 6.40588H43.1002V6.30588H43.0002V6.40588ZM40.3002 6.40588H40.2002V6.50588H40.3002V6.40588ZM40.3002 4.50586V4.40586H40.2002V4.50586H40.3002ZM42.7602 4.50586V4.60586H42.8602V4.50586H42.7602ZM42.7602 3.78589H42.8602V3.68589H42.7602V3.78589ZM40.3002 3.78589H40.2002V3.88589H40.3002V3.78589ZM45.5103 7.14587H45.4103V7.24587H45.5103V7.14587ZM46.2803 7.14587V7.24587H46.3803V7.14587H46.2803ZM45.5103 1.88586H45.6103V1.78586H45.5103V1.88586ZM43.8303 1.88586H43.7303V1.98586H43.8303V1.88586ZM43.8303 1.14587V1.04587H43.7303V1.14587H43.8303ZM48.0003 1.14587H48.1003V1.04587H48.0003V1.14587ZM48.0003 1.88586V1.98586H48.1003V1.88586H48.0003ZM46.2803 1.88586V1.78586H46.1803V1.88586H46.2803ZM50.9404 7.146H50.8404V7.246H50.9404V7.146ZM50.9404 1.146V1.046H50.8404V1.146H50.9404ZM51.7104 7.146V7.246H51.8104V7.146H51.7104ZM51.7104 1.146H51.8104V1.046H51.7104V1.146ZM54.3604 7.146H54.2604V7.246H54.3604V7.146ZM55.1304 7.146V7.246H55.2304V7.146H55.1304ZM54.3604 1.88599H54.4604V1.78599H54.3604V1.88599ZM52.6804 1.88599H52.5804V1.98599H52.6804V1.88599ZM52.6804 1.146V1.046H52.5804V1.146H52.6804ZM56.8004 1.146H56.9004V1.046H56.8004V1.146ZM56.8004 1.88599V1.98599H56.9004V1.88599H56.8004ZM55.1304 1.88599V1.78599H55.0304V1.88599H55.1304ZM64.0404 5.86572L64.111 5.93667L64.1144 5.93291L64.0404 5.86572ZM60.7804 5.86572L60.7062 5.933L60.7098 5.93658L60.7804 5.86572ZM64.0404 2.42575L64.1145 2.35848L64.1109 2.35489L64.0404 2.42575ZM60.7804 2.42575L60.7097 2.3548L60.7063 2.35856L60.7804 2.42575ZM66.5803 7.14587H66.4803V7.24587H66.5803V7.14587ZM66.5803 1.14587V1.04587H66.4803V1.14587H66.5803ZM67.3603 7.14587V7.24587H67.4603V7.14587H67.3603ZM67.3603 2.25586L67.4452 2.20294L67.2603 1.90657V2.25586H67.3603ZM70.4103 7.14587L70.3255 7.1988L70.3548 7.24587H70.4103V7.14587ZM71.2103 7.14587V7.24587H71.3103V7.14587H71.2103ZM71.2103 1.14587H71.3103V1.04587H71.2103V1.14587ZM70.4403 1.14587V1.04587H70.3403V1.14587H70.4403ZM70.4403 5.81589L70.3555 5.8689L70.5403 6.16444V5.81589H70.4403ZM67.5203 1.14587L67.6051 1.09286L67.5757 1.04587H67.5203V1.14587ZM64.5397 6.29494C63.3617 7.46638 61.4588 7.46638 60.2808 6.29494L60.1397 6.43675C61.3957 7.68578 63.4247 7.68578 64.6808 6.43675L64.5397 6.29494ZM64.5377 1.98472C65.6858 3.19288 65.6858 5.08879 64.5377 6.29696L64.6827 6.43473C65.9042 5.14937 65.9042 3.13231 64.6827 1.84695L64.5377 1.98472ZM62.4102 1.09988C63.2097 1.09988 63.976 1.41895 64.5393 1.98629L64.6812 1.84538C64.0804 1.24023 63.263 0.899878 62.4102 0.899878V1.09988ZM60.2812 1.98629C60.8444 1.41895 61.6108 1.09988 62.4102 1.09988V0.899878C61.5575 0.899878 60.74 1.24023 60.1393 1.84538L60.2812 1.98629ZM60.2829 6.29717C59.1396 5.08694 59.1396 3.19474 60.2829 1.9845L60.1375 1.84716C58.9214 3.13448 58.9214 5.1472 60.1375 6.43452L60.2829 6.29717ZM38.3205 4.39037C38.3536 5.10426 38.0925 5.80049 37.5982 6.31657L37.7426 6.45491C38.2748 5.89928 38.5559 5.1497 38.5203 4.38111L38.3205 4.39037ZM38.282 3.95344C38.3076 4.09609 38.3205 4.24076 38.3204 4.3857L38.5204 4.38578C38.5205 4.22896 38.5066 4.07243 38.4788 3.91808L38.282 3.95344ZM35.4704 4.03576H38.3804V3.83576H35.4704V4.03576ZM35.5704 4.65576V3.93576H35.3704V4.65576H35.5704ZM37.6404 4.55576H35.4704V4.75576H37.6404V4.55576ZM37.2139 5.94358C37.5379 5.59247 37.7248 5.13651 37.7404 4.65903L37.5405 4.6525C37.5264 5.08199 37.3583 5.49213 37.0669 5.80795L37.2139 5.94358ZM34.5236 6.43678C35.4357 6.83124 36.4955 6.63827 37.2099 5.94766L37.0709 5.80386C36.4145 6.43833 35.4409 6.6156 34.603 6.25322L34.5236 6.43678ZM33.0404 4.14435C33.0265 5.13792 33.6116 6.04233 34.5236 6.43678L34.603 6.25322C33.7652 5.89083 33.2276 5.05995 33.2404 4.14716L33.0404 4.14435ZM33.7227 2.38002C33.2641 2.85239 33.0178 3.49121 33.0405 4.1492L33.2403 4.1423C33.2195 3.53869 33.4455 2.95266 33.8662 2.51933L33.7227 2.38002ZM35.4709 1.64576C34.8125 1.64251 34.1813 1.90765 33.7227 2.38002L33.8662 2.51933C34.2869 2.086 34.866 1.84278 35.4699 1.84576L35.4709 1.64576ZM37.187 2.3914C36.7621 1.88601 36.1242 1.60986 35.4649 1.64591L35.4759 1.84561C36.0724 1.81299 36.6494 2.06284 37.0339 2.5201L37.187 2.3914ZM37.5697 1.85504L37.0397 2.38504L37.1811 2.52646L37.7111 1.99646L37.5697 1.85504ZM36.663 1.34848C37.0102 1.48853 37.3193 1.70885 37.5649 1.99137L37.7159 1.86013C37.4495 1.55378 37.1143 1.31487 36.7378 1.163L36.663 1.34848ZM35.4707 1.10574C35.8799 1.10438 36.2849 1.18672 36.6611 1.34767L36.7397 1.1638C36.3386 0.992116 35.9065 0.904289 35.4701 0.905738L35.4707 1.10574ZM33.3318 1.97574C33.893 1.40281 34.6664 1.08786 35.4682 1.10571L35.4726 0.905762C34.6156 0.886684 33.7889 1.22335 33.189 1.83579L33.3318 1.97574ZM32.6746 5.28662C32.2074 4.15153 32.4662 2.84701 33.3313 1.97624L33.1895 1.83528C32.2676 2.76315 31.9919 4.15322 32.4896 5.36273L32.6746 5.28662ZM35.4712 7.17576C34.2438 7.16616 33.1417 6.4217 32.6746 5.28662L32.4896 5.36273C32.9874 6.57225 34.1617 7.36552 35.4696 7.37575L35.4712 7.17576ZM37.5984 6.31639C37.0445 6.89174 36.272 7.20423 35.474 7.17582L35.4669 7.37569C36.3217 7.40612 37.1492 7.07139 37.7425 6.45509L37.5984 6.31639ZM43.0002 1.78586H40.3002V1.98586H43.0002V1.78586ZM42.9002 1.14587V1.88586H43.1002V1.14587H42.9002ZM39.5002 1.24587H43.0002V1.04587H39.5002V1.24587ZM39.6002 7.14587V1.14587H39.4002V7.14587H39.6002ZM43.0002 7.04587H39.5002V7.24587H43.0002V7.04587ZM42.9002 6.40588V7.14587H43.1002V6.40588H42.9002ZM40.3002 6.50588H43.0002V6.30588H40.3002V6.50588ZM40.2002 4.50586V6.40588H40.4002V4.50586H40.2002ZM42.7602 4.40586H40.3002V4.60586H42.7602V4.40586ZM42.6602 3.78589V4.50586H42.8602V3.78589H42.6602ZM40.3002 3.88589H42.7602V3.68589H40.3002V3.88589ZM40.2002 1.88586V3.78589H40.4002V1.88586H40.2002ZM45.5103 7.24587H46.2803V7.04587H45.5103V7.24587ZM45.4103 1.88586V7.14587H45.6103V1.88586H45.4103ZM43.8303 1.98586H45.5103V1.78586H43.8303V1.98586ZM43.7303 1.14587V1.88586H43.9303V1.14587H43.7303ZM48.0003 1.04587H43.8303V1.24587H48.0003V1.04587ZM48.1003 1.88586V1.14587H47.9003V1.88586H48.1003ZM46.2803 1.98586H48.0003V1.78586H46.2803V1.98586ZM46.3803 7.14587V1.88586H46.1803V7.14587H46.3803ZM51.0404 7.146V1.146H50.8404V7.146H51.0404ZM51.7104 7.046H50.9404V7.246H51.7104V7.046ZM51.6104 1.146V7.146H51.8104V1.146H51.6104ZM50.9404 1.246H51.7104V1.046H50.9404V1.246ZM54.3604 7.246H55.1304V7.046H54.3604V7.246ZM54.2604 1.88599V7.146H54.4604V1.88599H54.2604ZM52.6804 1.98599H54.3604V1.78599H52.6804V1.98599ZM52.5804 1.146V1.88599H52.7804V1.146H52.5804ZM56.8004 1.046H52.6804V1.246H56.8004V1.046ZM56.9004 1.88599V1.146H56.7004V1.88599H56.9004ZM55.1304 1.98599H56.8004V1.78599H55.1304V1.98599ZM55.2304 7.146V1.88599H55.0304V7.146H55.2304ZM63.9698 5.79487C63.1075 6.65359 61.7132 6.65359 60.8509 5.79487L60.7098 5.93658C61.6501 6.87302 63.1706 6.87302 64.1109 5.93658L63.9698 5.79487ZM63.9663 2.49294C64.8169 3.43065 64.8169 4.86085 63.9663 5.79853L64.1144 5.93291C65.0342 4.91899 65.0342 3.37251 64.1144 2.35856L63.9663 2.49294ZM60.8509 2.49661C61.7132 1.63788 63.1075 1.63788 63.9698 2.49661L64.1109 2.35489C63.1706 1.41845 61.6501 1.41845 60.7098 2.35489L60.8509 2.49661ZM60.8544 5.79853C60.0038 4.86085 60.0038 3.43065 60.8544 2.49294L60.7063 2.35856C59.7865 3.37251 59.7865 4.91899 60.7063 5.93291L60.8544 5.79853ZM66.6803 7.14587V1.14587H66.4803V7.14587H66.6803ZM67.3603 7.04587H66.5803V7.24587H67.3603V7.04587ZM67.2603 2.25586V7.14587H67.4603V2.25586H67.2603ZM70.4952 7.09295L67.4452 2.20294L67.2755 2.30878L70.3255 7.1988L70.4952 7.09295ZM71.2103 7.04587H70.4103V7.24587H71.2103V7.04587ZM71.1103 1.14587V7.14587H71.3103V1.14587H71.1103ZM70.4403 1.24587H71.2103V1.04587H70.4403V1.24587ZM70.5403 5.81589V1.14587H70.3403V5.81589H70.5403ZM67.4355 1.19889L70.3555 5.8689L70.5251 5.76287L67.6051 1.09286L67.4355 1.19889ZM66.5803 1.24587H67.5203V1.04587H66.5803V1.24587Z" fill="white"/>
  <path d="M1.44039 1.68597C1.11445 2.07708 0.949943 2.57776 0.980389 3.08597V25.206C0.949943 25.7142 1.11445 26.2149 1.44039 26.606L1.51039 26.676L13.9004 14.296V14.006L1.51039 1.61597L1.44039 1.68597Z" fill="url(#paint0_linear)"/>
  <path d="M18.0004 18.426L13.9004 14.296V14.006L18.0004 9.86597L18.0904 9.91597L23.0004 12.706C24.4004 13.496 24.4004 14.796 23.0004 15.596L18.1104 18.376L18.0004 18.426Z" fill="url(#paint1_linear)"/>
  <path d="M18.1204 18.366L13.9004 14.146L1.44043 26.606C2.02915 27.1235 2.90286 27.1487 3.52043 26.666L18.1304 18.366" fill="url(#paint2_linear)"/>
  <path d="M18.1204 9.92592L3.51042 1.62592C2.89285 1.1432 2.01914 1.1684 1.43042 1.68592L13.9004 14.1459L18.1204 9.92592Z" fill="url(#paint3_linear)"/>
  <path opacity="0.2" d="M18.0004 18.2759L3.51043 26.5259C2.91747 26.9692 2.10339 26.9692 1.51043 26.5259L1.44043 26.5959L1.51043 26.6659C2.10228 27.1126 2.91858 27.1126 3.51043 26.6659L18.1204 18.3659L18.0004 18.2759Z" fill="black"/>
  <path opacity="0.12" fill-rule="evenodd" clip-rule="evenodd" d="M18.0004 18.276L23.0004 15.446C23.5171 15.1909 23.8864 14.7108 24.0004 14.146C23.9488 14.7704 23.5674 15.3196 23.0004 15.586L18.0904 18.366L18.0004 18.276ZM0.978213 25.2606C0.994725 25.7006 1.15619 26.1249 1.44039 26.4659L1.51039 26.5459L1.44039 26.6159C1.12401 26.2363 0.959725 25.7534 0.978213 25.2606ZM0.978213 25.2606C0.978771 25.2457 0.979496 25.2308 0.980389 25.2159V25.0659C0.97649 25.131 0.975788 25.196 0.978213 25.2606Z" fill="black"/>
  <path opacity="0.25" d="M3.51046 1.76581L23.0005 12.8458C23.5172 13.1009 23.8865 13.581 24.0005 14.1458C23.9489 13.5214 23.5675 12.9722 23.0005 12.7058L3.51046 1.62581C2.11046 0.835811 0.970459 1.49581 0.970459 3.09581V3.24581C1.00046 1.63581 2.12046 0.975811 3.51046 1.76581Z" fill="white"/>
  <defs>
    <linearGradient id="paint0_linear" x1="8.47362" y1="-13.413" x2="-11.3658" y2="-8.13667" gradientUnits="userSpaceOnUse">
      <stop stop-color="#00A0FF"/>
      <stop offset="0.01" stop-color="#00A1FF"/>
      <stop offset="0.26" stop-color="#00BEFF"/>
      <stop offset="0.51" stop-color="#00D2FF"/>
      <stop offset="0.76" stop-color="#00DFFF"/>
      <stop offset="1" stop-color="#00E3FF"/>
    </linearGradient>
    <linearGradient id="paint1_linear" x1="24.8304" y1="3.94565" x2="0.640391" y2="3.94565" gradientUnits="userSpaceOnUse">
      <stop stop-color="#FFE000"/>
      <stop offset="0.41" stop-color="#FFBD00"/>
      <stop offset="0.78" stop-color="#FFA500"/>
      <stop offset="1" stop-color="#FF9C00"/>
    </linearGradient>
    <linearGradient id="paint2_linear" x1="1.07432" y1="7.67353" x2="-14.8621" y2="34.4801" gradientUnits="userSpaceOnUse">
      <stop stop-color="#FF3A44"/>
      <stop offset="1" stop-color="#C31162"/>
    </linearGradient>
    <linearGradient id="paint3_linear" x1="-8.28956" y1="-1.75807" x2="-1.17628" y2="10.2124" gradientUnits="userSpaceOnUse">
      <stop stop-color="#32A071"/>
      <stop offset="0.07" stop-color="#2DA771"/>
      <stop offset="0.48" stop-color="#15CF74"/>
      <stop offset="0.8" stop-color="#06E775"/>
      <stop offset="1" stop-color="#00F076"/>
    </linearGradient>
  </defs>
</svg>
