<svg width="50" height="89" viewBox="0 0 50 89" fill="none" xmlns="http://www.w3.org/2000/svg">
  <path d="M36.5791 24.5477C36.5791 30.9682 31.3049 36.1942 24.8001 36.1942C18.2953 36.1942 13.0211 30.9682 13.0211 24.5477C13.0211 18.1272 18.2953 12.9013 24.8001 12.9013C31.3049 12.9013 36.5791 18.1023 36.5791 24.5477ZM24.8001 0.408691C11.3384 0.408691 0.388184 11.2339 0.388184 24.5477C0.388184 53.838 24.8001 88.9018 24.8001 88.9018C24.8001 88.9018 49.212 53.8629 49.212 24.5477C49.1618 11.2339 38.2618 0.408691 24.8001 0.408691Z" fill="#9C6748"/>
</svg>
