Модель|Код комплектации|VIN-номер|Код цвета|Суффикс|Опции|Код модели|Модельный год|Дата производства|Модификация|Код салона|Статус авто|Цена|Минимальная цена на автомобиль|Скидка при покупке по кредиту|Скидка при покупке со страховкой|Скидка при покупке по Trade-In|Максимальная скидка на автомобиль|Дополнительное оборудование|Фото|Примечание|
GENESIS G70|G9S4L8G1KHH188|XWEG541ADK0000135|Z5E|9S|||2018|2018-01-01||YKG|Склад|2949000|2949000||||||||
GENESIS G80|B1S4L8G1KGG888|XWEGN411DJ0001176|N5M|1S|||2018|2018-01-01||RRY|Склад|2955000|2955000||||||||
GENESIS G70|G9S4L8G1KGG355|XWEG341ADK0000391|N5M|9S|||2019|2019-01-01||NNB|Склад|2249000|2249000||||||||
GENESIS G70|G9S4L8G1KGG355|XWEG341ADK0000310|YW6|9S|||2019|2019-01-01||TNW|Склад|2249000|2249000||||||||
