[
	{
		"id": 1,
		"name": "Рольф Алтуфьево",
		"latitude": 55.862743,
		"longitude": 37.5829132,
		"address": "г. Москва, Алтуфьевское ш., д. 31, корп. 1",
		"phone": "+7 (495) 755-88-44",
		"city_id": 1,
		"code": "C40AF10120",
		"site": "http://www.genesis-rolf.ru"
	},
	{
		"id": 2,
		"name": "Авилон",
		"latitude": 55.716866,
		"longitude": 37.71712,
		"address": "г. Москва, Волгоградский проспект, д. 41/2",
		"phone": "+7 (495) 730-44-33",
		"city_id": 1,
		"code": "C40AF01027",
		"site": "http://genesis-avilon.ru/"
	},
	{
		"id": 3,
		"name": "АГ-Моторс Балашиха",
		"latitude": 55.7932268,
		"longitude": 37.9242075,
		"address": "г. Балашиха, Московская обл, ш. Энтузиастов, д. 12а",
		"phone": "+7 (495) 961-28-70",
		"city_id": 1,
		"code": "C40AF01038",
		"site": ""
	},
	{
		"id": 4,
		"name": "РОЛЬФ Химки",
		"latitude": 55.90579147,
		"longitude": 37.41236129,
		"address": "г. Химки, Ленинградское шоссе, вл. 21",
		"phone": "+7 (495) 788-48-88",
		"city_id": 1,
		"code": "C40AF20120",
		"site": "http://www.genesis-rolf.ru"
	},
	{
		"id": 6,
		"name": "Хендэ Центр Кунцево",
		"latitude": 55.7249108,
		"longitude": 37.3750162,
		"address": "г. Москва, ул. Горбунова, д. 14",
		"phone": "+7 (495) 933-40-33",
		"city_id": 1,
		"code": "C40AF01063",
		"site": ""
	},
	{
		"id": 7,
		"name": "Major",
		"latitude": 55.7892208,
		"longitude": 37.3994174,
		"address": "г. Москва, ул. Маршала Прошлякова, д. 13",
		"phone": "+7 (495) 739-03-03",
		"city_id": 1,
		"code": "C40AF01090",
		"site": "http://www.genesis-major.ru"
	},
	{
		"id": 8,
		"name": "Автомир Сокольники",
		"latitude": 55.8156063,
		"longitude": 37.6906157,
		"address": "г. Москва, ул. Краснобогатырская, д. 2, стр. 26",
		"phone": "+7 (495) 223-22-11",
		"city_id": 1,
		"code": "C40AF30328",
		"site": "http://www.genesis.avtomir.ru"
	},
	{
		"id": 9,
		"name": "СИМ",
		"latitude": 55.686343,
		"longitude": 37.6215062,
		"address": "г. Москва, Варшавское ш., д. 26, стр. 11",
		"phone": "+7 (495) 725-47-67",
		"city_id": 1,
		"code": "C40AF00132",
		"site": "http://www.genesis-sim.ru"
	},
	{
		"id": 10,
		"name": "Авторусь Лосиный Остров",
		"latitude": 55.881984,
		"longitude": 37.731492,
		"address": "г. Москва, 95км МКАД, Ярославское шоссе вл.2В, стр.3",
		"phone": "+7 (495) 135-49-91",
		"city_id": 1,
		"code": "C40AF01101",
		"site": "http://www.genesis-losinyostrov.ru"
	},
	{
		"id": 11,
		"name": "Ринг Авто",
		"latitude": 51.669604,
		"longitude": 39.298717,
		"address": "г. Воронеж, ул. Изыскателей, д. 39, корп. 2",
		"phone": "+7 (473) 261-77-77",
		"city_id": 1,
		"code": "C40AF00945",
		"site": "http://www.genesis-ringauto.ru"
	},
	{
		"id": 12,
		"name": "РОЛЬФ Лахта",
		"latitude": 59.985009,
		"longitude": 30.2441857,
		"address": "г. Санкт-Петербург, ул. Савушкина, д. 103",
		"phone": "+7 (812) 335-67-70",
		"city_id": 3,
		"code": "C40AF01028",
		"site": "http://genesis.rolf-lahta.ru"
	},
	{
		"id": 13,
		"name": "Дакар Пулковское",
		"latitude": 59.8143177,
		"longitude": 30.3245847,
		"address": "г. Санкт-Петербург, Пулковское шоссе, д. 44/1, лит. А",
		"phone": "+7 (812) 327-00-00",
		"city_id": 3,
		"code": "C40AF20041",
		"site": "http://www.genesis-dacar.ru"
	},
	{
		"id": 14,
		"name": "Восток-Авто",
		"latitude": 59.89245,
		"longitude": 30.357102,
		"address": "г. Санкт-Петербург, ул. Бухарестская, д. 1",
		"phone": "+7 (812) 703-04-04",
		"city_id": 3,
		"code": "C40AF00233",
		"site": ""
	},
	{
		"id": 15,
		"name": "Рольф Октябрьская",
		"latitude": 59.912564,
		"longitude": 30.419833,
		"address": "г. Санкт-Петербург, Октябрьская набережная, 8, к.2",
		"phone": "+7 (812) 635-58-88",
		"city_id": 3,
		"code": "C40AF11028",
		"site": "http://www.genesis-rolf.ru"
	},
	{
		"id": 16,
		"name": "ТрансТехСервис",
		"latitude": 55.81834,
		"longitude": 49.0921019,
		"address": "г. Казань, Республика Татарстан, ул. Декабристов, д. 81 В",
		"phone": "+7 (843) 519-48-10",
		"city_id": 4,
		"code": "C40AF01035",
		"site": "http://www.genesis-tts.ru"
	},
	{
		"id": 17,
		"name": "КАН АВТО",
		"latitude": 55.837606,
		"longitude": 49.195074,
		"address": "г. Казань, ул.Сибирский тр. 51",
		"phone": "+7 (8432) 303030",
		"city_id": 4,
		"code": "C40AF01093",
		"site": ""
	},
	{
		"id": 18,
		"name": "АГАТ на Ларина",
		"latitude": 56.2355094,
		"longitude": 44.0213458,
		"address": "г. Нижний Новгород, ул. Ларина, д. 23",
		"phone": "+7 (831) 200-00-00",
		"city_id": 5,
		"code": "C40AF00985",
		"site": "http://www.genesis-agat.ru"
	},
	{
		"id": 19,
		"name": "ТрансТехСервис",
		"latitude": 55.7081101,
		"longitude": 52.3943997,
		"address": "г. Набережные Челны, Автодорога №1, Орловское кольцо",
		"phone": "+7 (8552) 39-25-25",
		"city_id": 6,
		"code": "C40AF01036",
		"site": "http://www.genesis-tts.ru"
	},
	{
		"id":20,
		"name": "ТрансТехСервис",
		"latitude": 54.6810479,
		"longitude": 55.9325531,
		"address": "г. Уфа, ул. Рубежная, д. 180",
		"phone": "+7 (347) 292-44-11",
		"city_id": 7,
		"code": "C40AF00168",
		"site": "http://www.genesis-tts.ru"
	},
	{
		"id": 21,
		"name": "КЛЮЧАВТО",
		"latitude": 45.0288697,
		"longitude": 39.1316582,
		"address": "г. Краснодар, ул. Аэропортовская, д. 4",
		"phone": "+7 (861) 227-77-22",
		"city_id": 8,
		"code": "C40AF00182",
		"site": "http://genesis-keyauto.ru/genesis.html"
	},
	{
		"id": 22,
		"name": "Юг-Авто",
		"latitude": 44.9976443,
		"longitude": 38.9496137,
		"address": "г. Краснодар, п. Яблоновский, ул. Краснодарская, д. 3",
		"phone": "+7 (861) 210-44-00",
		"city_id": 8,
		"code": "C40AF01009",
		"site": "https://genesis.yug-avto.ru/"
	},
	{
		"id": 23,
		"name": "АГАТ",
		"latitude": 48.7853191,
		"longitude": 44.5890464,
		"address": "г. Волгоград, пр. Ленина, д. 118 Б",
		"phone": "+7 (8442) 72-27-22",
		"city_id": 9,
		"code": "C40AF01016",
		"site": "http://www.genesis-agat34.ru"
	},
	{
		"id": 24,
		"name": "Сибкар Север",
		"latitude": 61.263147,
		"longitude": 73.4247989,
		"address": "г. Сургут, ул. Профсоюзов, д. 58, стр. 1",
		"phone": "+7 (3462) 21-60-00",
		"city_id": 11,
		"code": "C40AF10034",
		"site": ""
	},
	{
		"id": 25,
		"name": "Истен Моторс",
		"latitude": 55.21608617,
		"longitude": 61.38240695,
		"address": "г. Челябинск, Свердловский тракт, д. 5",
		"phone": "+7 (351) 211-02-20",
		"city_id": 12,
		"code": "C40AF00961",
		"site": ""
	},
	{
		"id": 26,
		"name": "Хендэ-центр Красноярск",
		"latitude": 56.0440135,
		"longitude": 92.8703258,
		"address": "г. Красноярск, ул. Караульная, д. 33",
		"phone": "+7 (391) 222-22-23",
		"city_id": 13,
		"code": "C40AF01019",
		"site": ""
	},
	{
		"id": 27,
		"name": "Эксперт - Авто",
		"latitude": 55.0948086,
		"longitude": 82.9771564,
		"address": "г. Новосибирск, ул. Богдана Хмельницкого 75/1",
		"phone": "+7 (383) 363-22-99",
		"city_id": 14,
		"code": "C40AF01095",
		"site": "http://genesis-expert-auto.ru/"
	},
	{
		"id": 28,
		"name": "СИМ Ярославль",
		"latitude": 57.660652,
		"longitude": 39.855545,
		"address": "г. Ярославль, Полушкина роща, д. 21",
		"phone": "+7 (4852) 58-20-40",
		"city_id": 15,
		"code": "C40AF01051",
		"site": "http://www.genesis-yaroslavl.ru"
	},
	{
		"id": 29,
		"name": "Автоимпорт",
		"latitude": 54.647448,
		"longitude": 39.654342,
		"address": "г. Рязань, Московское шоссе, д. 22 «Б»",
		"phone": "+7 (4912) 70-00-07",
		"city_id": "16",
		"code": "C40AF00957",
		"site": ""
	},
	{
		"id": 30,
		"name": "Нижегородец",
		"latitude": 56.3185539245605,
		"longitude": 43.9272346496582,
		"address": "г. Нижний Новгород, Московское шоссе, д. 34",
		"phone": "+7 (831) 275-99-52",
		"city_id": 5,
		"code": "C40AF00084",
		"site": "http://www.genesis-nnmotors.ru"
	},
	{
		"id": 31,
		"name": "Эксперт-Авто",
		"latitude": 53.2755714,
		"longitude": 50.2274321,
		"address": "г. Самара, ул. Демократическая, д. 55",
		"phone": "+7 (846) 321-00-00",
		"city_id": 17,
		"code": "C40AF01084",
		"site": "http://genesis-expertauto.ru"
	},
	{
		"id": 32,
		"name": "Автоцентр-М",
		"latitude": 44.988399,
		"longitude": 34.090025,
		"address": "г. Симферополь, улица Киевская, 187-В",
		"phone": "+7 (978) 835-70-07",
		"city_id": 19,
		"code": "C40AF01092",
		"site": ""
	},
	{
		"id": 33,
		"name": "Восток Моторс",
		"latitude": 57.175789,
		"longitude": 65.570574,
		"address": "г. Тюмень, ул. Алебашевская, д. 11",
		"phone": "+7 (3452) 48-44-44",
		"city_id": 21,
		"code": "C40AF01082",
		"site": ""
	},
	{
		"id": 34,
		"name": "Лаки Моторс",
		"latitude": 56.7637826,
		"longitude": 60.6123575,
		"address": "г. Екатеринбург, ул. Селькоровская, д.22",
		"phone": "+7 (343) 228-21-21",
		"city_id": 22,
		"code": "C40AF01110",
		"site": "http://genesis.luckymotors.ru/"
	},
	{
		"id": 35,
		"name": "Лидер Авто",
		"latitude": 43.3189816,
		"longitude": 45.720416,
		"address": "г. Грозный, проспект Кирова, д.13",
		"phone": "+7 (928) 888-56-56",
		"city_id": 23,
		"code": "C40AF01109",
		"site": ""
	},
	{
		"id": 36,
		"name": "Восток Моторс",
		"latitude": 57.950147,
		"longitude": 56.0965943,
		"address": "г. Пермь, ш. Космонавтов, д. 316В",
		"phone": "+7 (342) 254-44-44",
		"city_id": 24,
		"code": "C40AF01117",
		"site": ""
	},
	{
		"id": 37,
		"name": "Максимум",
		"latitude": "60.024243",
		"longitude": "30.435053",
		"address": "г. Санкт-Петербург, ул. Руставели, д. 53",
		"phone": "+7 (812) 777-70-02",
		"city_id": 3,
		"code": "C40AF01062",
		"site": ""
	}
]